*Step  = 1
*Time  = 0.1
*Data  = uy
15776,0.000606982
*Step  = 2
*Time  = 0.6
*Data  = uy
15776,0.0036637
*Step  = 3
*Time  = 3
*Data  = uy
15776,0.0186237
*Step  = 4
*Time  = 6.92
*Data  = uy
15776,0.0429785
*Step  = 5
*Time  = 11.1688827
*Data  = uy
15776,0.0671552
*Step  = 6
*Time  = 12
*Data  = uy
15776,0.071515
*Step  = 7
*Time  = 17.6479803
*Data  = uy
15776,0.0978368
*Step  = 8
*Time  = 23.6987772
*Data  = uy
15776,0.120701
*Step  = 9
*Time  = 31.7720433
*Data  = uy
15776,0.145083
*Step  = 10
*Time  = 42.336569
*Data  = uy
15776,0.170036
*Step  = 11
*Time  = 56.0361248
*Data  = uy
15776,0.195089
*Step  = 12
*Time  = 73.7241676
*Data  = uy
15776,0.220034
*Step  = 13
*Time  = 85
*Data  = uy
15776,0.233075
*Step  = 14
*Time  = 113.331781
*Data  = uy
15776,0.259571
*Step  = 15
*Time  = 146.306843
*Data  = uy
15776,0.283121
*Step  = 16
*Time  = 183.356913
*Data  = uy
15776,0.303882
*Step  = 17
*Time  = 224.071907
*Data  = uy
15776,0.322228
*Step  = 18
*Time  = 268.163815
*Data  = uy
15776,0.338558
*Step  = 19
*Time  = 315.439131
*Data  = uy
15776,0.353212
*Step  = 20
*Time  = 365.777844
*Data  = uy
15776,0.366477
*Step  = 21
*Time  = 419.117425
*Data  = uy
15776,0.378585
*Step  = 22
*Time  = 475.440647
*Data  = uy
15776,0.38972
*Step  = 23
*Time  = 534.766335
*Data  = uy
15776,0.400036
*Step  = 24
*Time  = 597.142364
*Data  = uy
15776,0.409653
*Step  = 25
*Time  = 662.640372
*Data  = uy
15776,0.418671
*Step  = 26
*Time  = 731.351788
*Data  = uy
15776,0.427173
*Step  = 27
*Time  = 803.384875
*Data  = uy
15776,0.435226
*Step  = 28
*Time  = 878.862545
*Data  = uy
15776,0.442887
*Step  = 29
*Time  = 957.920774
*Data  = uy
15776,0.450204
*Step  = 30
*Time  = 1000
*Data  = uy
15776,0.453845
*Step  = 31
*Time  = 1086.22936
*Data  = uy
15776,0.460829
*Step  = 32
*Time  = 1176.31835
*Data  = uy
15776,0.467534
*Step  = 33
*Time  = 1270.65004
*Data  = uy
15776,0.474004
*Step  = 34
*Time  = 1369.58526
*Data  = uy
15776,0.480276
*Step  = 35
*Time  = 1473.47171
*Data  = uy
15776,0.486377
*Step  = 36
*Time  = 1582.65102
*Data  = uy
15776,0.492329
*Step  = 37
*Time  = 1697.46436
*Data  = uy
15776,0.49815
*Step  = 38
*Time  = 1818.25687
*Data  = uy
15776,0.503856
*Step  = 39
*Time  = 1945.38136
*Data  = uy
15776,0.509458
*Step  = 40
*Time  = 2079.20122
*Data  = uy
15776,0.51497
*Step  = 41
*Time  = 2220.09303
*Data  = uy
15776,0.520399
*Step  = 42
*Time  = 2368.44869
*Data  = uy
15776,0.525755
*Step  = 43
*Time  = 2524.67743
*Data  = uy
15776,0.531045
*Step  = 44
*Time  = 2560
*Data  = uy
15776,0.532196
