*Step  = 1
*Time  = 0.1
*Data  = uy
15776,0.000724301
*Step  = 2
*Time  = 0.6
*Data  = uy
15776,0.00438032
*Step  = 3
*Time  = 3
*Data  = uy
15776,0.0225428
*Step  = 4
*Time  = 5.81110341
*Data  = uy
15776,0.0446526
*Step  = 5
*Time  = 9.01107258
*Data  = uy
15776,0.0700337
*Step  = 6
*Time  = 12
*Data  = uy
15776,0.0929919
*Step  = 7
*Time  = 15.9157343
*Data  = uy
15776,0.121079
*Step  = 8
*Time  = 19.8314686
*Data  = uy
15776,0.146449
*Step  = 9
*Time  = 24.9718624
*Data  = uy
15776,0.175824
*Step  = 10
*Time  = 30.7596075
*Data  = uy
15776,0.204297
*Step  = 11
*Time  = 38.2578412
*Data  = uy
15776,0.235525
*Step  = 12
*Time  = 47.7496247
*Data  = uy
15776,0.268326
*Step  = 13
*Time  = 59.6135433
*Data  = uy
15776,0.301926
*Step  = 14
*Time  = 74.3369173
*Data  = uy
15776,0.335862
*Step  = 15
*Time  = 85
*Data  = uy
15776,0.35664
*Step  = 16
*Time  = 111.375761
*Data  = uy
15776,0.398769
*Step  = 17
*Time  = 142.645033
*Data  = uy
15776,0.437462
*Step  = 18
*Time  = 178.29045
*Data  = uy
15776,0.472279
*Step  = 19
*Time  = 217.826352
*Data  = uy
15776,0.503412
*Step  = 20
*Time  = 260.906728
*Data  = uy
15776,0.531292
*Step  = 21
*Time  = 307.293506
*Data  = uy
15776,0.556394
*Step  = 22
*Time  = 356.832366
*Data  = uy
15776,0.579144
*Step  = 23
*Time  = 409.434299
*Data  = uy
15776,0.599912
*Step  = 24
*Time  = 465.061576
*Data  = uy
15776,0.619002
*Step  = 25
*Time  = 523.717076
*Data  = uy
15776,0.636666
*Step  = 26
*Time  = 585.436198
*Data  = uy
15776,0.653111
*Step  = 27
*Time  = 640
*Data  = uy
15776,0.666178
