#DataThief /mnt/BackUp/jeremy/repository/keratometry/figures/parameter_study/Whitford2018_37dot5mmHg_per_min.png Friday 29-Nov-2019 11:57:40 am
2.3319e-4, 0.0158
1.166e-3, 0.0788
2.0987e-3, 0.1418
3.0308e-3, 0.1418
3.9636e-3, 0.2048
4.8956e-3, 0.2048
5.8284e-3, 0.2678
6.7611e-3, 0.3308
7.6939e-3, 0.3939
8.6259e-3, 0.3939
9.558e-3, 0.3939
9.5587e-3, 0.4569
0.0105, 0.5199
0.0114, 0.5199
0.0124, 0.5829
0.0133, 0.6459
0.0142, 0.6459
0.0152, 0.7088
0.0161, 0.7088
0.017, 0.772
0.018, 0.835
0.0189, 0.835
0.0198, 0.898
0.0207, 0.898
0.0217, 0.898
0.0226, 0.9609
0.0235, 0.9609
0.0245, 1.024
0.0254, 1.024
0.0263, 1.087
0.0273, 1.087
0.0282, 1.1501
0.0291, 1.2131
0.0301, 1.2131
0.031, 1.2761
0.0319, 1.2761
0.0329, 1.3391
0.0338, 1.3391
0.0347, 1.4021
0.0357, 1.4651
0.0366, 1.4651
0.0375, 1.5282
0.0385, 1.5282
0.0394, 1.5912
0.0403, 1.5912
0.0413, 1.6542
0.0422, 1.7172
0.0431, 1.7172
0.0441, 1.7172
0.045, 1.7802
0.0459, 1.8432
0.0469, 1.9062
0.0478, 1.9693
0.0487, 1.9693
0.0497, 2.0323
0.0506, 2.0323
0.0515, 2.0953
0.0525, 2.1583
0.0534, 2.1583
0.0543, 2.2213
0.0552, 2.2844
0.0562, 2.2844
0.0571, 2.3474
0.058, 2.4104
0.059, 2.4104
0.0599, 2.4734
0.0608, 2.5364
0.0618, 2.5364
0.0627, 2.5994
0.0636, 2.5994
0.0646, 2.6625
0.0655, 2.7255
0.0664, 2.7255
0.0674, 2.7885
0.0683, 2.8515
0.0692, 2.8515
0.0702, 2.9144
0.0711, 2.9776
0.072, 2.9776
0.073, 3.0406
0.0739, 3.0406
0.0748, 3.1036
0.0758, 3.1666
0.0767, 3.1666
0.0776, 3.2296
0.0786, 3.2926
0.0795, 3.2926
0.0804, 3.3557
0.0814, 3.4187
0.0823, 3.4187
0.0832, 3.4817
0.0842, 3.4817
0.0851, 3.5447
0.086, 3.6077
0.087, 3.6077
0.0879, 3.6707
0.0888, 3.7338
0.0898, 3.7338
0.0907, 3.7968
0.0916, 3.8598
0.0925, 3.8598
0.0935, 3.9228
0.0944, 3.9858
0.0953, 4.0488
0.0963, 4.0488
0.0972, 4.1118
0.0981, 4.1749
0.0991, 4.1749
0.1, 4.2379
0.1009, 4.3009
0.1019, 4.3639
0.1028, 4.3639
0.1037, 4.4269
0.1047, 4.49
0.1056, 4.49
0.1065, 4.553
0.1075, 4.616
0.1084, 4.679
0.1093, 4.679
0.1103, 4.742
0.1112, 4.805
0.1121, 4.805
0.1131, 4.8681
0.114, 4.9311
0.1149, 4.9941
0.1159, 4.9941
0.1168, 5.0571
0.1177, 5.1201
0.1187, 5.1201
0.1196, 5.1831
0.1205, 5.2462
0.1215, 5.3092
0.1224, 5.3092
0.1233, 5.3721
0.1243, 5.4352
0.1252, 5.4352
0.1261, 5.4982
0.1271, 5.5612
0.128, 5.6242
0.1289, 5.6242
0.1299, 5.6873
0.1308, 5.7503
0.1317, 5.7503
0.1327, 5.8133
0.1336, 5.8763
0.1345, 5.9393
0.1354, 5.9393
0.1364, 6.0024
0.1373, 6.0654
0.1381, 6.0654
0.1392, 6.1284
0.1401, 6.1914
0.141, 6.2544
0.142, 6.2544
0.1429, 6.3174
0.1438, 6.3805
0.1448, 6.3805
0.1457, 6.4435
0.1466, 6.5065
0.1476, 6.5695
0.1485, 6.5695
0.1494, 6.6324
0.1504, 6.6955
0.1513, 6.7586
0.1522, 6.8216
0.1532, 6.8216
0.1541, 6.8846
0.155, 6.9476
0.156, 7.0106
0.1569, 7.0737
0.1578, 7.1367
0.1588, 7.1997
0.1597, 7.1997
0.1606, 7.2627
0.1616, 7.3256
0.1625, 7.3887
0.1634, 7.4518
0.1644, 7.5148
0.1653, 7.5148
0.1662, 7.5777
0.1672, 7.6408
0.1681, 7.7038
0.169, 7.7668
0.17, 7.8298
0.1709, 7.8298
0.1718, 7.8929
0.1728, 7.9559
0.1737, 8.0189
0.1746, 8.0819
0.1756, 8.1449
0.1764, 8.208
0.1774, 8.208
0.1783, 8.271
0.1793, 8.334
0.1802, 8.397
0.1811, 8.46
0.1821, 8.523
0.183, 8.523
0.1839, 8.5861
0.1849, 8.6491
0.1858, 8.7121
0.1867, 8.7751
0.1877, 8.838
0.1886, 8.838
0.1895, 8.9011
0.1905, 8.9642
0.1914, 9.0272
0.1923, 9.0902
0.1933, 9.1532
0.1942, 9.2162
0.1951, 9.2162
0.1961, 9.2792
0.197, 9.3423
0.1979, 9.4053
0.1989, 9.4683
0.1998, 9.5312
0.2006, 9.5312
0.2017, 9.5943
0.2026, 9.6573
0.2035, 9.7204
0.2045, 9.7833
0.2054, 9.8464
0.2063, 9.8464
0.2073, 9.9094
0.2082, 9.9724
0.2091, 10.0354
0.2101, 10.0985
0.211, 10.1615
0.2119, 10.1615
0.2129, 10.2245
0.2138, 10.2875
0.2147, 10.3505
0.2157, 10.4135
0.2166, 10.4766
0.2175, 10.5396
0.2185, 10.6026
0.2194, 10.6656
0.2203, 10.7286
0.2213, 10.7917
0.2222, 10.8547
0.2222, 10.9177
0.2222, 10.9807
0.2231, 10.9807
0.2231, 11.0437
0.2241, 11.0437
0.2241, 11.1067
0.225, 11.1698
0.2259, 11.2328
0.2269, 11.2958
0.2278, 11.3588
0.2278, 11.4218
0.2287, 11.4848
0.2296, 11.5479
0.2306, 11.6109
0.2315, 11.6739
0.2324, 11.7368
0.2334, 11.7999
0.2343, 11.8629
0.2352, 11.926
0.2362, 11.926
0.2362, 11.9889
0.2371, 11.9889
0.2371, 12.052
0.238, 12.052
0.238, 12.115
0.2389, 12.115
0.2389, 12.178
0.2399, 12.241
0.2408, 12.241
0.2418, 12.241
0.2427, 12.3041
0.2436, 12.3671
0.2446, 12.4301
0.2455, 12.4931
0.2464, 12.5561
0.2474, 12.6191
0.2483, 12.6822
0.2492, 12.7452
0.2502, 12.8082
0.2502, 12.8712
0.2511, 12.8712
0.2511, 12.9342
0.252, 12.9342
0.252, 12.9971
0.253, 12.9971
0.253, 13.0603
0.253, 13.1233
0.2539, 13.1863
0.2539, 13.2493
0.2548, 13.3123
0.2558, 13.3753
0.2567, 13.4384
0.2576, 13.5013
0.2586, 13.5644
0.2595, 13.6274
0.2604, 13.6904
0.2614, 13.7534
0.2623, 13.8165
0.2631, 13.8795
0.2642, 13.9425
0.2651, 14.0055
0.266, 14.0685
0.267, 14.1315
0.2679, 14.1945
0.2688, 14.1945
0.2688, 14.2576
0.2688, 14.3206
0.2698, 14.3206
0.2698, 14.3836
0.2707, 14.3836
0.2707, 14.4466
0.2716, 14.4466
0.2716, 14.5096
0.2716, 14.5727
0.2726, 14.6357
0.2735, 14.6987
0.2744, 14.7617
0.2753, 14.8247
0.2753, 14.8878
0.2763, 14.9508
0.2772, 15.0138
0.2782, 15.0768
0.2782, 15.1398
0.2791, 15.2028
0.28, 15.2659
0.281, 15.3289
0.2819, 15.3919
0.2819, 15.4549
0.2828, 15.5179
0.2838, 15.5809
0.2847, 15.644
0.2856, 15.7069
0.2856, 15.77
0.2866, 15.833
0.2875, 15.896
0.2884, 15.959
0.2884, 16.0221
0.2894, 16.0851
0.2903, 16.1481
0.2912, 16.2111
0.2922, 16.2741
0.2922, 16.3371
0.2931, 16.4002
0.294, 16.4632
0.2949, 16.5262
0.295, 16.5892
0.2959, 16.6522
0.2968, 16.7151
0.2977, 16.7783
0.2987, 16.8413
0.2987, 16.9043
0.2995, 16.9673
0.3005, 17.0303
0.3014, 17.0933
0.3024, 17.1564
0.3024, 17.2194
0.3033, 17.2824
0.3043, 17.3454
0.3052, 17.4083
0.3052, 17.4714
0.3061, 17.5345
0.3071, 17.5975
0.308, 17.6604
0.3089, 17.7235
0.3089, 17.7865
0.3099, 17.8495
0.3108, 17.9125
0.3117, 17.9756
0.3117, 18.0386
0.3127, 18.1016
0.3127, 18.1646
0.3136, 18.2276
0.3145, 18.2907
0.3145, 18.3537
0.3155, 18.4167
0.3164, 18.4797
0.3164, 18.5427
0.3173, 18.6058
0.3183, 18.6688
0.3183, 18.7318
0.3192, 18.7948
0.3201, 18.8578
0.3201, 18.9207
0.3211, 18.9839
0.3211, 19.0469
0.322, 19.1099
0.3229, 19.1729
0.3229, 19.2359
0.3239, 19.2989
0.3248, 19.362
0.3248, 19.425
0.3256, 19.488
0.3267, 19.551
0.3267, 19.6139
0.3276, 19.677
0.3276, 19.7401
0.3285, 19.8031
0.3295, 19.866
0.3295, 19.9291
0.3304, 19.9921
0.3313, 20.0551
0.3313, 20.1182
0.3323, 20.1812
0.3332, 20.2442
0.3332, 20.3072
0.3341, 20.3702
0.3351, 20.4332
0.3351, 20.4963
0.336, 20.5593
0.336, 20.6223
0.3369, 20.6853
0.3378, 20.7483
0.3378, 20.8113
0.3388, 20.8744
0.3397, 20.9374
0.3397, 21.0004
0.3407, 21.0634
0.3416, 21.1264
0.3416, 21.1894
0.3425, 21.2525
0.3435, 21.3155
0.3435, 21.3785
0.3444, 21.4415
0.3444, 21.5045
0.3453, 21.5675
0.3463, 21.6306
0.3463, 21.6936
0.3472, 21.7566
0.3472, 21.8195
0.3481, 21.8826
0.3481, 21.9456
0.3491, 22.0087
0.35, 22.0717
0.35, 22.1347
0.3509, 22.1977
0.3509, 22.2607
0.3519, 22.3237
0.3519, 22.3868
0.3528, 22.4498
0.3528, 22.5128
0.3537, 22.5758
0.3537, 22.6388
0.3547, 22.7019
0.3547, 22.7649
0.3556, 22.8279
0.3565, 22.8909
0.3565, 22.9539
0.3575, 23.0169
0.3575, 23.08
0.3584, 23.143
0.3584, 23.206
0.3593, 23.269
0.3593, 23.332
0.3603, 23.395
0.3603, 23.4581
0.3612, 23.5211
0.3612, 23.584
0.362, 23.6471
0.3631, 23.7101
0.3631, 23.7731
0.3639, 23.8362
0.3639, 23.8992
0.3649, 23.9622
0.3649, 24.0252
0.3659, 24.0882
0.3659, 24.1512
0.3668, 24.2143
0.3668, 24.2772
0.3677, 24.3403
0.3677, 24.4033
0.3687, 24.4663
0.3696, 24.5293
0.3696, 24.5924
0.3705, 24.6554
0.3705, 24.7184
0.3715, 24.7814
0.3715, 24.8444
0.3724, 24.9074
0.3724, 24.9705
0.3733, 25.0335
0.3733, 25.0965
0.3743, 25.1595
0.3743, 25.2225
0.3752, 25.2854
0.3761, 25.3486
0.3761, 25.4116
0.3761, 25.4746
0.3771, 25.5375
0.3771, 25.6006
0.378, 25.6636
0.378, 25.7267
0.3789, 25.7896
0.3789, 25.8527
0.3799, 25.9157
0.3799, 25.9787
0.3808, 26.0417
0.3808, 26.1048
0.3808, 26.1678
0.3817, 26.2308
0.3817, 26.2938
0.3827, 26.3568
0.3827, 26.4199
0.3836, 26.4828
0.3836, 26.5459
0.3845, 26.6089
0.3845, 26.6719
0.3855, 26.7349
0.3855, 26.798
0.3864, 26.861
0.3864, 26.924
0.3864, 26.987
0.3873, 27.05
0.3873, 27.113
0.3883, 27.1761
0.3883, 27.2391
0.3892, 27.3021
0.3892, 27.3651
0.3901, 27.4281
0.3901, 27.491
0.3911, 27.5542
0.3911, 27.6172
0.3911, 27.6802
0.392, 27.7431
0.392, 27.8062
0.3929, 27.8692
0.3929, 27.9323
0.3939, 27.9952
0.3939, 28.0583
0.3948, 28.1213
0.3948, 28.1843
0.3957, 28.2473
0.3957, 28.3104
0.3967, 28.3734
0.3967, 28.4364
0.3967, 28.4994
0.3976, 28.5624
0.3976, 28.6254
0.3985, 28.6885
0.3985, 28.7515
0.3995, 28.8145
0.3995, 28.8775
0.4003, 28.9405
0.4003, 29.0035
0.4013, 29.0666
0.4013, 29.1296
0.4013, 29.1926
0.4022, 29.2556
0.4022, 29.3186
0.4032, 29.3816
0.4032, 29.4447
0.4032, 29.5077
0.4042, 29.5707
0.4042, 29.6337
0.4051, 29.6966
0.4051, 29.7597
0.4051, 29.8228
0.406, 29.8858
0.406, 29.9487
0.407, 30.0118
0.407, 30.0748
0.407, 30.1378
0.4079, 30.2009
0.4079, 30.2639
0.4088, 30.3269
0.4088, 30.3899
0.4088, 30.4529
0.4098, 30.516
0.4098, 30.579
0.4107, 30.642
0.4107, 30.705
0.4107, 30.768
0.4116, 30.831
0.4116, 30.8941
0.4126, 30.9571
0.4126, 31.0201
0.4126, 31.0831
0.4135, 31.1461
0.4135, 31.2091
0.4144, 31.2722
0.4144, 31.3352
0.4144, 31.3982
0.4154, 31.4612
0.4154, 31.5242
0.4154, 31.5872
0.4163, 31.6503
0.4163, 31.7133
0.4172, 31.7763
0.4172, 31.8393
0.4172, 31.9022
0.4182, 31.9653
0.4182, 32.0284
0.4191, 32.0914
0.4191, 32.1544
0.4191, 32.2174
0.42, 32.2804
0.42, 32.3434
0.421, 32.4064
0.421, 32.4695
0.421, 32.5325
0.4219, 32.5955
0.4219, 32.6585
0.4228, 32.7215
0.4228, 32.7846
0.4238, 32.8476
0.4238, 32.9106
0.4238, 32.9736
0.4238, 33.0366
0.4247, 33.0996
0.4247, 33.1627
0.4256, 33.2257
0.4256, 33.2887
0.4256, 33.3517
0.4266, 33.4147
0.4266, 33.4777
0.4266, 33.5408
0.4275, 33.6038
0.4275, 33.6667
0.4275, 33.7298
0.4284, 33.7928
0.4284, 33.8558
0.4284, 33.9189
0.4294, 33.9819
0.4294, 34.0449
0.4294, 34.1078
0.4303, 34.1709
0.4303, 34.234
0.4303, 34.297
0.4312, 34.3599
0.4312, 34.423
0.4322, 34.486
0.4322, 34.549
0.4322, 34.612
0.4331, 34.6751
0.4331, 34.7381
0.4331, 34.8011
0.434, 34.8641
0.434, 34.9271
0.434, 34.9902
0.435, 35.0532
0.435, 35.1162
0.435, 35.1792
0.4359, 35.2422
0.4359, 35.3052
0.4359, 35.3683
0.4368, 35.4313
0.4368, 35.4943
0.4368, 35.5573
0.4378, 35.6202
0.4378, 35.6833
0.4378, 35.7464
0.4386, 35.8094
0.4386, 35.8723
0.4396, 35.9354
0.4396, 35.9984
0.4396, 36.0614
0.4405, 36.1245
0.4405, 36.1875
0.4405, 36.2505
0.4415, 36.3135
0.4415, 36.3765
0.4424, 36.4395
0.4434, 36.5026
